{
  "feedback": [
    {
      "id": 1,
      "rating": 10,
      "text": "This is from db.json file"
    },
    {
      "rating": "8",
      "text": "New feedback item",
      "id": 2
    },
    {
      "text": "grdgdrgdrgdg",
      "rating": 4,
      "id": 3
    }
  ]
}